{
    "FeedbackRequest": {
        
        "FirstReplyMethod": "FullAutoReplyAfterWaiting",
        "WaitingTimePeriodUntilAutoReply": 0,
        
        "NotifyAboutNewFeedbackRequestTo": [
            "info@mylanding-studio"
        ]
    }
}